<svg xmlns="http://www.w3.org/2000/svg" width="129" height="138" viewBox="0 0 129 138">
    <defs>
        <style>
            .cls-1{fill:#c92354}.cls-2{fill:#f5bb1f}
        </style>
    </defs>
    <g id="Group_2114" data-name="Group 2114" transform="translate(41 -597)">
        <path id="Path_4228" d="M55.5 0A55.5 55.5 0 1 1 0 55.5 55.5 55.5 0 0 1 55.5 0z" class="cls-1" data-name="Path 4228" transform="translate(-41 597)"/>
        <circle id="Ellipse_12" cx="36" cy="36" r="36" class="cls-2" data-name="Ellipse 12" transform="translate(16 663)"/>
    </g>
</svg>
