<svg xmlns="http://www.w3.org/2000/svg" width="87" height="102" viewBox="0 0 87 102">
    <defs>
        <style>
            .cls-1{fill:#1592e6}.cls-2{fill:#29a4ff}
        </style>
    </defs>
    <g id="Group_3897" data-name="Group 3897" transform="translate(-1279 -177)">
        <path id="Rectangle_745" d="M0 0h87v87H0z" class="cls-1" data-name="Rectangle 745" transform="translate(1279 177)"/>
        <path id="Rectangle_746" d="M0 0h41v41H0z" class="cls-2" data-name="Rectangle 746" transform="translate(1305 238)"/>
    </g>
</svg>
