<svg xmlns="http://www.w3.org/2000/svg" viewBox="0 0 215.646 123.915">
    <defs>
        <style>
            .cls-1{fill:#af1e49}.cls-2{fill:#f05a2b}.cls-3{fill:#ec2024}.cls-4{fill:#27a8e0}.cls-5{fill:#3bb44a}.cls-6{fill:#70a041}.cls-7{fill:#e84125}.cls-8{fill:#fff}.cls-9{fill:#782981}.cls-10{fill:#ec1c24}
        </style>
    </defs>
    <g id="Group_2946" data-name="Group 2946" transform="translate(-74.557 -104.217)">
        <path id="Path_3600" d="M153.906 178.983a13.75 13.75 0 0 0 4.656-10.327 13.792 13.792 0 0 0-13.318-13.782v-.012h-1.855v29.373l6.122 10.8h13.018z" class="cls-1" data-name="Path 3600" transform="translate(-15.016 -9.712)"/>
        <path id="Rectangle_189" d="M0 0h38.28v12.415H0z" class="cls-1" data-name="Rectangle 189" transform="translate(75.091 145.15)"/>
        <path id="Rectangle_190" d="M0 0h40.176v12.415H0z" class="cls-2" data-name="Rectangle 190" transform="rotate(90 -22.356 122.794)"/>
        <path id="Rectangle_191" d="M0 0h12.415v12.415H0z" class="cls-3" data-name="Rectangle 191" transform="rotate(90 -22.356 122.794)"/>
        <path id="Rectangle_192" d="M0 0h40.176v12.415H0z" class="cls-4" data-name="Rectangle 192" transform="rotate(90 46.41 191.56)"/>
        <path id="Rectangle_193" d="M0 0h28.899v12.098H0z" class="cls-2" data-name="Rectangle 193" transform="translate(225.557 145.15)"/>
        <path id="Rectangle_194" d="M0 0h28.899v12.098H0z" class="cls-5" data-name="Rectangle 194" transform="translate(225.557 159.19)"/>
        <path id="Rectangle_195" d="M0 0h28.899v12.098H0z" class="cls-1" data-name="Rectangle 195" transform="translate(225.557 173.229)"/>
        <path id="Path_3601" d="M141.41 184.235v-29.373H129v40.176h12.41z" class="cls-4" data-name="Path 3601" transform="translate(-13.039 -9.712)"/>
        <path id="Path_3602" d="M311.128 184.235v-29.373h-12.415v40.176h12.415z" class="cls-2" data-name="Path 3602" transform="translate(-36.36 -9.712)"/>
        <path id="Path_3603" d="M306.2 199.461h20.361v-12.415h-27.85v12.415z" class="cls-1" data-name="Path 3603" transform="translate(-36.36 -14.135)"/>
        <path id="Path_3604" d="M183.256 195.477l11.544-39.766h-11.818l-11.614 39.765z" class="cls-1" data-name="Path 3604" transform="translate(-18.861 -9.829)"/>
        <path id="Path_3605" d="M196.5 195.477l-11.548-39.765h11.821l11.614 39.765z" class="cls-4" data-name="Path 3605" transform="translate(-20.728 -9.829)"/>
        <path id="Path_3606" d="M235.235 155.711l-11.548 39.765h11.821l11.614-39.765z" class="cls-4" data-name="Path 3606" transform="translate(-26.05 -9.829)"/>
        <path id="Path_3607" d="M221.99 155.711l11.548 39.765h-11.821L210.1 155.711z" class="cls-2" data-name="Path 3607" transform="translate(-24.184 -9.829)"/>
        <path id="Path_3608" d="M186.494 236.956V213.41h-9.952v32.207h9.952z" class="cls-4" data-name="Path 3608" transform="translate(-19.572 -17.757)"/>
        <path id="Path_3609" d="M186.494 213.41h-9.952l14.613 32.207H201.4z" class="cls-2" data-name="Path 3609" transform="translate(-19.572 -17.757)"/>
        <path id="Path_3610" d="M163.665 232.747a11.025 11.025 0 0 0 3.733-8.279 11.056 11.056 0 0 0-10.677-11.048v-.009h-1.487v23.546l4.907 8.66h10.436z" class="cls-2" data-name="Path 3610" transform="translate(-16.644 -17.757)"/>
        <path id="Path_3611" d="M153.648 236.956V213.41H143.7v32.207h9.952z" class="cls-1" data-name="Path 3611" transform="translate(-15.059 -17.757)"/>
        <path id="Path_3612" d="M221.469 241.62v-15.583h-9.952V247.355h9.952z" class="cls-1" data-name="Path 3612" transform="translate(-24.378 -19.492)"/>
        <path id="Rectangle_196" d="M0 0h9.588v9.952H0z" class="cls-5" data-name="Rectangle 196" transform="translate(197.091 196.592)"/>
        <path id="Path_3613" d="M315.4 236.876v-23.063h-9.748v31.547h9.748z" class="cls-5" data-name="Path 3613" transform="translate(-37.313 -17.813)"/>
        <path id="Rectangle_197" d="M0 0h21.869v9.748H0z" class="cls-2" data-name="Rectangle 197" transform="translate(268.335 217.799)"/>
        <path id="Rectangle_198" d="M0 0h9.748v9.748H0z" class="cls-6" data-name="Rectangle 198" transform="translate(268.335 217.798)"/>
        <g id="Group_2939" data-name="Group 2939" transform="translate(98.229 195.982)">
            <path id="Path_3614" d="M117.973 245.669l9.257-31.878h-9.476l-9.31 31.878z" class="cls-2" data-name="Path 3614" transform="translate(-108.444 -213.791)"/>
            <path id="Path_3615" d="M128.59 245.669l-9.257-31.878h9.476l9.31 31.878z" class="cls-4" data-name="Path 3615" transform="translate(-109.94 -213.791)"/>
        </g>
        <g id="Group_2940" data-name="Group 2940" transform="translate(235.889 195.982)">
            <path id="Path_3616" d="M277.563 245.669l9.257-31.878h-9.476l-9.31 31.878z" class="cls-7" data-name="Path 3616" transform="translate(-268.033 -213.791)"/>
            <path id="Path_3617" d="M288.18 245.669l-9.257-31.878h9.477l9.31 31.878z" class="cls-1" data-name="Path 3617" transform="translate(-269.53 -213.791)"/>
        </g>
        <g id="Group_2941" data-name="Group 2941" transform="translate(210.087 195.982)">
            <path id="Path_3618" d="M258.267 213.791l-9.257 31.878h9.476l9.31-31.878z" class="cls-2" data-name="Path 3618" transform="translate(-239.617 -213.791)"/>
            <path id="Path_3619" d="M247.65 213.791l9.257 31.878h-9.476l-9.31-31.878z" class="cls-4" data-name="Path 3619" transform="translate(-238.121 -213.791)"/>
        </g>
        <path id="Path_3620" d="M100.922 235.8a6.742 6.742 0 1 1 0-11.818v-9.819a16.057 16.057 0 1 0 0 31.456z" class="cls-1" data-name="Path 3620" transform="translate(-6.528 -17.816)"/>
        <path id="Path_3621" d="M203.776 236.956V213.41h-9.952v32.207h9.952z" class="cls-4" data-name="Path 3621" transform="translate(-21.947 -17.757)"/>
        <g id="Group_2945" data-name="Group 2945" transform="translate(74.557 104.217)">
            <g id="Group_2942" data-name="Group 2942">
                <path id="Path_3622" d="M97.276 119.9a6.094 6.094 0 0 1 3.7 1.213 5.844 5.844 0 0 1 3.638-1.242 6.488 6.488 0 0 0-3.609-1.14 7.006 7.006 0 0 0-3.726 1.17" class="cls-8" data-name="Path 3622" transform="translate(-83.237 -108.963)"/>
                <path id="Path_3623" d="M100.263 121.423a5.739 5.739 0 0 0-4-.982 6.288 6.288 0 0 0-2.151 3.161 15.7 15.7 0 0 1 6.15-2.18" class="cls-8" data-name="Path 3623" transform="translate(-82.802 -109.191)"/>
                <path id="Path_3624" d="M101.863 121.433a5.719 5.719 0 0 1 3.97-1.039 7.091 7.091 0 0 1 2.238 3.234 18.049 18.049 0 0 0-6.208-2.194" class="cls-8" data-name="Path 3624" transform="translate(-83.867 -109.186)"/>
                <path id="Path_3625" d="M93.967 124.122a16.668 16.668 0 0 1 6.454-2.281 19.669 19.669 0 0 1 6.453 2.208 10.542 10.542 0 0 1 .578 2.4s-5.356-1.876-7.016-2.556c0 0-4.808 1.906-6.858 2.5a12.273 12.273 0 0 1 .389-2.266" class="cls-8" data-name="Path 3625" transform="translate(-82.729 -109.391)"/>
                <path id="Path_3626" d="M100.088 124.963a8.715 8.715 0 0 0 1.184-.461 9.435 9.435 0 0 0 1.227.447l-1.1.751z" class="cls-8" data-name="Path 3626" transform="translate(-83.623 -109.757)"/>
                <path id="Path_3627" d="M93.171 126.695a3.784 3.784 0 0 1 .173-1.141l-.939-1.17z" class="cls-8" data-name="Path 3627" transform="translate(-82.567 -109.741)"/>
                <path id="Path_3628" d="M109.612 125.616a4.84 4.84 0 0 1 .217 1.039l.78-2.237z" class="cls-8" data-name="Path 3628" transform="translate(-84.932 -109.746)"/>
                <path id="Path_3629" d="M119 123.647l-5.19-5.13h-.012l-.028-.007-.1-.022a3.588 3.588 0 0 0-.979-.049 3.7 3.7 0 0 0-1.824.646l-.239.177-.163.139-.769.75a9.57 9.57 0 0 1 .135 13.135l.686.689.113.087v.041l.015.017.039.049.052.066.044.062.058.084.047.072.063.1.049.084.066.122.05.094.068.146.047.1.073.183.037.1.1.311c.037.122.066.244.091.362l.022.12.037.227.014.139.017.19v.135l.005.147 4.347-4.391 3.506-3.506a3.294 3.294 0 0 0 .942-1.9 3.5 3.5 0 0 0 .049-.546 4.121 4.121 0 0 0-1.468-3.023" class="cls-8" data-name="Path 3629" transform="translate(-84.944 -108.921)"/>
                <path id="Path_3630" d="M93.74 118.09a9.782 9.782 0 0 1 13.053.076l.788-.769.125-.108.066-.055.141-.113.156-.108a4.29 4.29 0 0 1 1.288-.606 4.354 4.354 0 0 1 .851-.151 3.783 3.783 0 0 1 .4-.016h.016l-6.239-6.187a10.226 10.226 0 0 1-1.114-1.009c-.252-.253-.491-.493-.748-.711a3.4 3.4 0 0 0-2.326-.926 3.308 3.308 0 0 0-2.353.972l-.085.085c-.166.138-.327.285-.49.434l-.029.027-5.164 5.124v.016a3.9 3.9 0 0 0 .808 3.143z" class="cls-8" data-name="Path 3630" transform="translate(-82.512 -107.408)"/>
                <path id="Path_3631" d="M108.208 139.237l-.015-.168-.01-.119-.032-.2-.017-.108-.08-.317-.1-.3-.037-.091-.071-.173-.048-.1-.061-.128-.053-.095-.054-.1-.052-.083-.048-.076-.048-.066-.042-.059-.038-.048-.035-.044-.027-.031-.027-.029-.043-.044-.657-.662a9.776 9.776 0 0 1-13.347.07l-.712.708a3.418 3.418 0 0 1-.581.444l-.041.027-.115.066-.061.036-.122.062-.074.039-.12.055-.1.044-.124.047-.114.043-.122.04-.133.043-.126.03-.149.038-.128.023-.166.029-.131.015-.18.021-.15.005-.175.007 6.08 6.129c.135.135.279.292.436.463a5.35 5.35 0 0 0 3.4 2.1 3.616 3.616 0 0 0 .529.04 3.311 3.311 0 0 0 2.351-.971l4.083-4.087 1.623-1.572.009-.041.009-.056.012-.082.01-.078.01-.105.009-.1.005-.125v-.255z" class="cls-8" data-name="Path 3631" transform="translate(-82.188 -111.364)"/>
                <path id="Path_3632" d="M91.6 133.017a9.572 9.572 0 0 1 .144-13.292l-.864-.887-.024-.028-.012-.015-.035-.041-.022-.029-.043-.056-.032-.041-.051-.071-.035-.053-.06-.091-.037-.058-.08-.134-.022-.038-.1-.194-.032-.065-.072-.153-.037-.088-.063-.151-.037-.1-.053-.16-.035-.109-.047-.179-.027-.106-.043-.229-.013-.075-.035-.319v-.077l-.009-.217-6.241 6.169c-.135.135-.292.28-.461.436A5.143 5.143 0 0 0 81 126.209a4.186 4.186 0 0 0 1.468 3.044l5.251 5.32.242.041a4.031 4.031 0 0 0 .486.029 3.683 3.683 0 0 0 2.443-.92z" class="cls-8" data-name="Path 3632" transform="translate(-81 -108.583)"/>
                <path id="Path_3633" d="M98.108 129.664a.469.469 0 1 1 .391-.728.964.964 0 1 0 0 .519.472.472 0 0 1-.391.209" class="cls-8" data-name="Path 3633" transform="translate(-83.145 -110.269)"/>
                <path id="Path_3634" d="M105.439 128.23a.961.961 0 0 0-.925.7.469.469 0 1 1 0 .524.963.963 0 1 0 .925-1.227" class="cls-8" data-name="Path 3634" transform="translate(-84.231 -110.269)"/>
                <path id="Path_3635" d="M105.475 133.059s-.111-.763-.788-.8a.465.465 0 0 0-.528.371.538.538 0 0 1 .42-.13.434.434 0 0 1 .33.62c-.209.511-1.532.349-1.532.349a4.785 4.785 0 0 0-1.6-.035 4.266 4.266 0 0 1-1.552 0 4.781 4.781 0 0 0-1.6.035s-1.323.161-1.533-.349a.434.434 0 0 1 .331-.62.538.538 0 0 1 .42.13.466.466 0 0 0-.529-.371c-.676.039-.787.8-.787.8s-.2 1.247 1.567 1.547a4.134 4.134 0 0 0 2.9-.217 4.127 4.127 0 0 0 2.9.217c1.762-.3 1.566-1.547 1.566-1.547" class="cls-8" data-name="Path 3635" transform="translate(-83.134 -110.822)"/>
                <path id="Path_3636" d="M97.519 130.469a1.427 1.427 0 1 1 1.428-1.428 1.429 1.429 0 0 1-1.428 1.428m0-2.651a1.223 1.223 0 1 0 1.223 1.223 1.225 1.225 0 0 0-1.223-1.223" class="cls-8" data-name="Path 3636" transform="translate(-83.074 -110.185)"/>
                <path id="Path_3637" d="M105.33 130.469a1.427 1.427 0 1 1 1.427-1.428 1.429 1.429 0 0 1-1.427 1.428m0-2.651a1.223 1.223 0 1 0 1.223 1.223 1.224 1.224 0 0 0-1.223-1.223" class="cls-8" data-name="Path 3637" transform="translate(-84.147 -110.185)"/>
            </g>
            <g id="Group_2943" data-name="Group 2943" transform="translate(41.236 7.329)">
                <path id="Path_3638" d="M128.8 122.3v14.219h3.5v-8.149s.242-3.225 3.328-3.225c0 0 2.185.139 2.185 3.015v8.323h3.64v-8.323s.486-3.085 3.157-3.085 2.358 2.809 2.358 2.809v8.565h3.5v-10.13s-.311-4.4-4.473-4.4-4.959 2.566-4.959 2.566a4.934 4.934 0 0 0-4.336-2.533 5.138 5.138 0 0 0-4.367 2.081V122.3z" class="cls-8" data-name="Path 3638" transform="translate(-128.805 -116.731)"/>
                <path id="Path_3639" d="M157.549 122.4h3.538v14.148h-3.5z" class="cls-8" data-name="Path 3639" transform="translate(-132.755 -116.797)"/>
                <path id="Path_3640" d="M171.747 126.388l2.114-2.046a5.419 5.419 0 0 0-4.819-2.426 4.088 4.088 0 0 0-4.2 2.878 4.135 4.135 0 0 0 2.222 4.925c3.293 1.8 4.126 1.941 3.708 3.259s-3.154.762-4.438-.832l-2.114 2.288a5.853 5.853 0 0 0 4.958 2.393c3.154-.242 4.092-1.8 4.092-1.8a4.261 4.261 0 0 0 .52-4.51s-.867-1.838-4.334-3.154c0 0-2.219-.66-1.179-1.978s3.467 1.006 3.467 1.006" class="cls-8" data-name="Path 3640" transform="translate(-133.672 -116.731)"/>
                <path id="Path_3641" d="M179.321 116.286h3.5v5.2h2.046v3.086h-2.082v11.1h-3.4v-11.063h-1.941v-3.086h1.838z" class="cls-8" data-name="Path 3641" transform="translate(-135.489 -115.957)"/>
                <path id="Path_3642" d="M195.046 121.915s-7.388-.071-7.388 7.559 7.664 7.456 7.664 7.456 4.231.173 6.14-3.086l-2.878-1.526a4.013 4.013 0 0 1-3.261 1.455 4.115 4.115 0 0 1-4.367-3.364l11.477-.068s.694-8.079-7.385-8.426m-3.884 5.686a4.034 4.034 0 0 1 3.884-2.671 3.99 3.99 0 0 1 3.848 2.74z" class="cls-8" data-name="Path 3642" transform="translate(-136.892 -116.731)"/>
                <path id="Path_3643" d="M207.2 122.336h3.052V124s1.629-3.052 4.544-1.7l-1.077 3.085s-1.974-1.594-2.912 1.873v9.19h-3.5z" class="cls-8" data-name="Path 3643" transform="translate(-139.577 -116.737)"/>
                <path id="Path_3644" d="M161.287 117.736a1.831 1.831 0 1 1-1.831-1.831 1.832 1.832 0 0 1 1.831 1.831" class="cls-8" data-name="Path 3644" transform="translate(-132.765 -115.905)"/>
            </g>
            <g id="Group_2944" data-name="Group 2944" transform="translate(120.763 7.329)">
                <path id="Path_3645" d="M232.134 122.329v1.7a5.626 5.626 0 0 0-4.611-2.114c-3.191 0-6.521 2.325-6.521 7.837a6.971 6.971 0 0 0 5.9 6.971 6.666 6.666 0 0 0 5.166-1.631v1.458h3.572v-14.221zm-3.711 11.214a4.158 4.158 0 1 1 3.884-4.151 4.024 4.024 0 0 1-3.884 4.151" class="cls-8" data-name="Path 3645" transform="translate(-221.001 -116.731)"/>
                <path id="Path_3646" d="M260.034 122.329v1.7a5.626 5.626 0 0 0-4.611-2.114c-3.192 0-6.521 2.325-6.521 7.837a6.97 6.97 0 0 0 5.9 6.971 6.667 6.667 0 0 0 5.166-1.631v1.458h3.572v-14.221zm-3.711 11.214a4.158 4.158 0 1 1 3.884-4.151 4.023 4.023 0 0 1-3.884 4.151" class="cls-8" data-name="Path 3646" transform="translate(-224.835 -116.731)"/>
                <path id="Path_3647" d="M280.617 116.126v7.107a5.626 5.626 0 0 0-4.611-2.114c-3.192 0-6.521 2.325-6.521 7.837a6.971 6.971 0 0 0 5.9 6.971 6.667 6.667 0 0 0 5.166-1.631v1.458h3.572v-19.628zm-3.711 16.621a4.158 4.158 0 1 1 3.884-4.151 4.023 4.023 0 0 1-3.884 4.151" class="cls-8" data-name="Path 3647" transform="translate(-227.663 -115.935)"/>
                <path id="Path_3648" d="M241.743 115.964h3.63v19.744h-3.652z" class="cls-8" data-name="Path 3648" transform="translate(-223.848 -115.913)"/>
                <path id="Path_3649" d="M290.091 122.343h3.63v14.241h-3.652z" class="cls-8" data-name="Path 3649" transform="translate(-230.492 -116.79)"/>
                <path id="Path_3650" d="M293.832 117.736A1.831 1.831 0 1 1 292 115.9a1.832 1.832 0 0 1 1.831 1.831" class="cls-8" data-name="Path 3650" transform="translate(-230.506 -115.905)"/>
                <path id="Path_3651" d="M298.028 122.306v14.219h3.492v-7.654a3.625 3.625 0 0 1 3.305-3.7s2.265-.416 2.265 3.33v8h3.537v-10.335a4.563 4.563 0 0 0-4.648-4.253 5.784 5.784 0 0 0-4.345 1.734v-1.319z" class="cls-8" data-name="Path 3651" transform="translate(-231.586 -116.729)"/>
            </g>
        </g>
        <path id="Path_3652" d="M184.952 155.711l5.838 20.1 5.983-20.1z" class="cls-9" data-name="Path 3652" transform="translate(-20.728 -9.829)"/>
        <path id="Rectangle_199" d="M0 0h12.415v12.415H0z" class="cls-3" data-name="Rectangle 199" transform="translate(262.353 172.912)"/>
        <path id="Path_3653" d="M278.923 213.791l4.581 15.774 4.9-15.774z" class="cls-10" data-name="Path 3653" transform="translate(-33.641 -17.81)"/>
    </g>
</svg>
